{
  "compilerOptions": {
    "baseUrl": "./",
    "paths": {
      "@/*": ["resources/js/*"],
      "@layout/*": ["resources/js/components/layout/*"],
      "@modules/*": ["resources/js/store/modules/*"],

      "@partials/*": ["resources/js/components/_partials/*"],
      "@mixins/*": ["resources/js/components/_mixins/*"],

      "@auth/*": ["resources/js/components/auth/*"],
      "@clients/*": ["resources/js/components/clients/*"],
      "@sessions/*": ["resources/js/components/sessions/*"]
    }
  }
}
